%YAML 1.1
%TAG !u! tag:unity3d.com,2011:
--- !u!1 &114190
GameObject:
  m_ObjectHideFlags: 0
  m_PrefabParentObject: {fileID: 0}
  m_PrefabInternal: {fileID: 100100000}
  serializedVersion: 4
  m_Component:
  - 4: {fileID: 414190}
  - 114: {fileID: 11414190}
  m_Layer: 0
  m_Name: prefab_gameMaster
  m_TagString: Untagged
  m_Icon: {fileID: 0}
  m_NavMeshLayer: 0
  m_StaticEditorFlags: 0
  m_IsActive: 1
--- !u!4 &414190
Transform:
  m_ObjectHideFlags: 1
  m_PrefabParentObject: {fileID: 0}
  m_PrefabInternal: {fileID: 100100000}
  m_GameObject: {fileID: 114190}
  m_LocalRotation: {x: 0, y: 0, z: 0, w: 1}
  m_LocalPosition: {x: 0, y: 0, z: -130.600006}
  m_LocalScale: {x: 1, y: 1, z: 1}
  m_Children: []
  m_Father: {fileID: 0}
  m_RootOrder: 0
--- !u!114 &11414190
MonoBehaviour:
  m_ObjectHideFlags: 1
  m_PrefabParentObject: {fileID: 0}
  m_PrefabInternal: {fileID: 100100000}
  m_GameObject: {fileID: 114190}
  m_Enabled: 1
  m_EditorHideFlags: 0
  m_Script: {fileID: 11500000, guid: 386014a2ebd49aa4a8d18f5dccc45a5b, type: 3}
  m_Name: 
  m_EditorClassIdentifier: 
  infection:
    totalSeconds: 60
    infectionTimer: {fileID: 0}
    text: {fileID: 0}
  lives:
    livesImage: {fileID: 0}
    lives0: {fileID: 21300000, guid: eef37cdc1f1d1144abaa5762fa55e562, type: 3}
    lives1: {fileID: 21300000, guid: e8ea86e7ed64e86449215cba61df53f0, type: 3}
    lives2: {fileID: 21300000, guid: 11b47d771f941924c8a81249d7321cc0, type: 3}
    lives3: {fileID: 21300000, guid: 5d13dba5a8cc5a9489570d76ba7d814a, type: 3}
    lives4: {fileID: 21300000, guid: 505d2be8867cb4147b3a538760589285, type: 3}
--- !u!1001 &100100000
Prefab:
  m_ObjectHideFlags: 1
  serializedVersion: 2
  m_Modification:
    m_TransformParent: {fileID: 0}
    m_Modifications: []
    m_RemovedComponents: []
  m_ParentPrefab: {fileID: 0}
  m_RootGameObject: {fileID: 114190}
  m_IsPrefabParent: 1
  m_IsExploded: 1
